{"failedCount":1,"prefixedPath":"src\/test\/java\/users\/get\/user-get.feature","packageQualifiedName":"src.test.java.users.get.user-get","loopIndex":-1,"relativePath":"src\/test\/java\/users\/get\/user-get.feature","scenarioResults":[{"sectionIndex":1,"stepResults":[{"result":{"nanos":50395400,"millis":50.3954,"status":"passed"},"step":{"background":true,"line":4,"prefix":"*","index":0,"text":"url \"https:\/\/reqres.in\/\""}},{"result":{"nanos":492100,"millis":0.4921,"status":"passed"},"step":{"line":12,"prefix":"Given","index":0,"text":"path \"api\/users?page=1\""}},{"result":{"nanos":557560700,"millis":557.5607,"status":"passed"},"step":{"line":13,"prefix":"When","index":1,"text":"method get"},"stepLog":"10:10:46.039 request:\n1 > GET https:\/\/reqres.in\/api\/users%3Fpage=1\n1 > Host: reqres.in\n1 > Connection: Keep-Alive\n1 > User-Agent: Apache-HttpClient\/4.5.13 (Java\/16.0.2)\n1 > Accept-Encoding: gzip,deflate\n\n\n10:10:46.372 response time in milliseconds: 331\n1 < 200\n1 < Date: Tue, 06 Dec 2022 15:10:46 GMT\n1 < Content-Type: application\/json; charset=utf-8\n1 < Transfer-Encoding: chunked\n1 < Connection: keep-alive\n1 < X-Powered-By: Express\n1 < Access-Control-Allow-Origin: *\n1 < Etag: W\/\"2c1-N6Rqerxquq2kgQhL51EiSg4x0R8\"\n1 < Via: 1.1 vegur\n1 < Cache-Control: max-age=14400\n1 < CF-Cache-Status: HIT\n1 < Age: 820\n1 < Report-To: {\"endpoints\":[{\"url\":\"https:\\\/\\\/a.nel.cloudflare.com\\\/report\\\/v3?s=1sV%2BbNxoC4U4MZl%2BIA8yQZwVCifQPjkPHDIJ0rQZQiLGodCWmiPuXWvFD1gv8U2M1wn2E5%2BOHI3cftCVmEUpit0Q9ULYKfexRf3i%2BCfbY9fmA5E9uYwC82%2BGdQ%3D%3D\"}],\"group\":\"cf-nel\",\"max_age\":604800}\n1 < NEL: {\"success_fraction\":0,\"report_to\":\"cf-nel\",\"max_age\":604800}\n1 < Vary: Accept-Encoding\n1 < Server: cloudflare\n1 < CF-RAY: 7755f344bd58b3b6-MIA\n{\"page\":1,\"per_page\":6,\"total\":12,\"total_pages\":2,\"data\":[{\"id\":1,\"name\":\"cerulean\",\"year\":2000,\"color\":\"#98B2D1\",\"pantone_value\":\"15-4020\"},{\"id\":2,\"name\":\"fuchsia rose\",\"year\":2001,\"color\":\"#C74375\",\"pantone_value\":\"17-2031\"},{\"id\":3,\"name\":\"true red\",\"year\":2002,\"color\":\"#BF1932\",\"pantone_value\":\"19-1664\"},{\"id\":4,\"name\":\"aqua sky\",\"year\":2003,\"color\":\"#7BC4C4\",\"pantone_value\":\"14-4811\"},{\"id\":5,\"name\":\"tigerlily\",\"year\":2004,\"color\":\"#E2583E\",\"pantone_value\":\"17-1456\"},{\"id\":6,\"name\":\"blue turquoise\",\"year\":2005,\"color\":\"#53B0AE\",\"pantone_value\":\"15-5217\"}],\"support\":{\"url\":\"https:\/\/reqres.in\/#support-heading\",\"text\":\"To keep ReqRes free, contributions towards server costs are appreciated!\"}}\n\n"},{"result":{"nanos":19000,"millis":0.019,"status":"passed"},"step":{"line":14,"prefix":"Then","index":2,"text":"status 200"}},{"result":{"nanos":59210700,"millis":59.2107,"status":"passed"},"step":{"line":15,"prefix":"And","index":3,"text":"print response"},"stepLog":"10:10:46.450 [print] {\n  \"page\": 1,\n  \"per_page\": 6,\n  \"total\": 12,\n  \"total_pages\": 2,\n  \"data\": [\n    {\n      \"id\": 1,\n      \"name\": \"cerulean\",\n      \"year\": 2000,\n      \"color\": \"#98B2D1\",\n      \"pantone_value\": \"15-4020\"\n    },\n    {\n      \"id\": 2,\n      \"name\": \"fuchsia rose\",\n      \"year\": 2001,\n      \"color\": \"#C74375\",\n      \"pantone_value\": \"17-2031\"\n    },\n    {\n      \"id\": 3,\n      \"name\": \"true red\",\n      \"year\": 2002,\n      \"color\": \"#BF1932\",\n      \"pantone_value\": \"19-1664\"\n    },\n    {\n      \"id\": 4,\n      \"name\": \"aqua sky\",\n      \"year\": 2003,\n      \"color\": \"#7BC4C4\",\n      \"pantone_value\": \"14-4811\"\n    },\n    {\n      \"id\": 5,\n      \"name\": \"tigerlily\",\n      \"year\": 2004,\n      \"color\": \"#E2583E\",\n      \"pantone_value\": \"17-1456\"\n    },\n    {\n      \"id\": 6,\n      \"name\": \"blue turquoise\",\n      \"year\": 2005,\n      \"color\": \"#53B0AE\",\n      \"pantone_value\": \"15-5217\"\n    }\n  ],\n  \"support\": {\n    \"url\": \"https:\/\/reqres.in\/#support-heading\",\n    \"text\": \"To keep ReqRes free, contributions towards server costs are appreciated!\"\n  }\n}\n \n"},{"result":{"nanos":24409100,"errorMessage":"match failed: EQUALS\n  $ | not equal | actual has 1 more key(s) than expected - {\"support\":{\"url\":\"https:\\\/\\\/reqres.in\\\/#support-heading\",\"text\":\"To keep ReqRes free, contributions towards server costs are appreciated!\"}} (MAP:MAP)\n  {\"page\":1,\"per_page\":6,\"total\":12,\"total_pages\":2,\"data\":[{\"id\":1,\"name\":\"cerulean\",\"year\":2000,\"color\":\"#98B2D1\",\"pantone_value\":\"15-4020\"},{\"id\":2,\"name\":\"fuchsia rose\",\"year\":2001,\"color\":\"#C74375\",\"pantone_value\":\"17-2031\"},{\"id\":3,\"name\":\"true red\",\"year\":2002,\"color\":\"#BF1932\",\"pantone_value\":\"19-1664\"},{\"id\":4,\"name\":\"aqua sky\",\"year\":2003,\"color\":\"#7BC4C4\",\"pantone_value\":\"14-4811\"},{\"id\":5,\"name\":\"tigerlily\",\"year\":2004,\"color\":\"#E2583E\",\"pantone_value\":\"17-1456\"},{\"id\":6,\"name\":\"blue turquoise\",\"year\":2005,\"color\":\"#53B0AE\",\"pantone_value\":\"15-5217\"}],\"support\":{\"url\":\"https:\/\/reqres.in\/#support-heading\",\"text\":\"To keep ReqRes free, contributions towards server costs are appreciated!\"}}\n  {\"page\":1,\"per_page\":6,\"total\":12,\"total_pages\":2,\"data\":[{\"id\":1,\"name\":\"cerulean\",\"year\":2000,\"color\":\"#98B2D1\",\"pantone_value\":\"15-4020\"},{\"id\":2,\"name\":\"fuchsia rose\",\"year\":2001,\"color\":\"#C74375\",\"pantone_value\":\"17-2031\"},{\"id\":3,\"name\":\"true red\",\"year\":2002,\"color\":\"#BF1932\",\"pantone_value\":\"19-1664\"},{\"id\":4,\"name\":\"aqua sky\",\"year\":2003,\"color\":\"#7BC4C4\",\"pantone_value\":\"14-4811\"},{\"id\":5,\"name\":\"tigerlily\",\"year\":2004,\"color\":\"#E2583E\",\"pantone_value\":\"17-1456\"},{\"id\":6,\"name\":\"blue turquoise\",\"year\":2005,\"color\":\"#53B0AE\",\"pantone_value\":\"15-5217\"}]}\n\n\nsrc\/test\/java\/users\/get\/user-get.feature:16","millis":24.4091,"status":"failed"},"step":{"endLine":66,"line":16,"prefix":"And","docString":"{\"page\": 1,\n  \"per_page\": 6,\n  \"total\": 12,\n  \"total_pages\": 2,\n  \"data\": [\n{\n  \"id\": 1,\n  \"name\": \"cerulean\",\n  \"year\": 2000,\n  \"color\": \"#98B2D1\",\n  \"pantone_value\": \"15-4020\"\n},\n{\n  \"id\": 2,\n  \"name\": \"fuchsia rose\",\n  \"year\": 2001,\n  \"color\": \"#C74375\",\n  \"pantone_value\": \"17-2031\"\n},\n{\n  \"id\": 3,\n  \"name\": \"true red\",\n  \"year\": 2002,\n  \"color\": \"#BF1932\",\n  \"pantone_value\": \"19-1664\"\n},\n{\n  \"id\": 4,\n  \"name\": \"aqua sky\",\n  \"year\": 2003,\n  \"color\": \"#7BC4C4\",\n  \"pantone_value\": \"14-4811\"\n},\n{\n  \"id\": 5,\n  \"name\": \"tigerlily\",\n  \"year\": 2004,\n  \"color\": \"#E2583E\",\n  \"pantone_value\": \"17-1456\"\n},\n{\n  \"id\": 6,\n  \"name\": \"blue turquoise\",\n  \"year\": 2005,\n  \"color\": \"#53B0AE\",\n  \"pantone_value\": \"15-5217\"\n}\n  ]}","index":4,"text":"match response =="},"stepLog":"10:10:46.476 src\/test\/java\/users\/get\/user-get.feature:16\nAnd match response ==\n\"\"\"\n{\"page\": 1,\n  \"per_page\": 6,\n  \"total\": 12,\n  \"total_pages\": 2,\n  \"data\": [\n{\n  \"id\": 1,\n  \"name\": \"cerulean\",\n  \"year\": 2000,\n  \"color\": \"#98B2D1\",\n  \"pantone_value\": \"15-4020\"\n},\n{\n  \"id\": 2,\n  \"name\": \"fuchsia rose\",\n  \"year\": 2001,\n  \"color\": \"#C74375\",\n  \"pantone_value\": \"17-2031\"\n},\n{\n  \"id\": 3,\n  \"name\": \"true red\",\n  \"year\": 2002,\n  \"color\": \"#BF1932\",\n  \"pantone_value\": \"19-1664\"\n},\n{\n  \"id\": 4,\n  \"name\": \"aqua sky\",\n  \"year\": 2003,\n  \"color\": \"#7BC4C4\",\n  \"pantone_value\": \"14-4811\"\n},\n{\n  \"id\": 5,\n  \"name\": \"tigerlily\",\n  \"year\": 2004,\n  \"color\": \"#E2583E\",\n  \"pantone_value\": \"17-1456\"\n},\n{\n  \"id\": 6,\n  \"name\": \"blue turquoise\",\n  \"year\": 2005,\n  \"color\": \"#53B0AE\",\n  \"pantone_value\": \"15-5217\"\n}\n  ]}\n\"\"\"\nmatch failed: EQUALS\n  $ | not equal | actual has 1 more key(s) than expected - {\"support\":{\"url\":\"https:\\\/\\\/reqres.in\\\/#support-heading\",\"text\":\"To keep ReqRes free, contributions towards server costs are appreciated!\"}} (MAP:MAP)\n  {\"page\":1,\"per_page\":6,\"total\":12,\"total_pages\":2,\"data\":[{\"id\":1,\"name\":\"cerulean\",\"year\":2000,\"color\":\"#98B2D1\",\"pantone_value\":\"15-4020\"},{\"id\":2,\"name\":\"fuchsia rose\",\"year\":2001,\"color\":\"#C74375\",\"pantone_value\":\"17-2031\"},{\"id\":3,\"name\":\"true red\",\"year\":2002,\"color\":\"#BF1932\",\"pantone_value\":\"19-1664\"},{\"id\":4,\"name\":\"aqua sky\",\"year\":2003,\"color\":\"#7BC4C4\",\"pantone_value\":\"14-4811\"},{\"id\":5,\"name\":\"tigerlily\",\"year\":2004,\"color\":\"#E2583E\",\"pantone_value\":\"17-1456\"},{\"id\":6,\"name\":\"blue turquoise\",\"year\":2005,\"color\":\"#53B0AE\",\"pantone_value\":\"15-5217\"}],\"support\":{\"url\":\"https:\/\/reqres.in\/#support-heading\",\"text\":\"To keep ReqRes free, contributions towards server costs are appreciated!\"}}\n  {\"page\":1,\"per_page\":6,\"total\":12,\"total_pages\":2,\"data\":[{\"id\":1,\"name\":\"cerulean\",\"year\":2000,\"color\":\"#98B2D1\",\"pantone_value\":\"15-4020\"},{\"id\":2,\"name\":\"fuchsia rose\",\"year\":2001,\"color\":\"#C74375\",\"pantone_value\":\"17-2031\"},{\"id\":3,\"name\":\"true red\",\"year\":2002,\"color\":\"#BF1932\",\"pantone_value\":\"19-1664\"},{\"id\":4,\"name\":\"aqua sky\",\"year\":2003,\"color\":\"#7BC4C4\",\"pantone_value\":\"14-4811\"},{\"id\":5,\"name\":\"tigerlily\",\"year\":2004,\"color\":\"#E2583E\",\"pantone_value\":\"17-1456\"},{\"id\":6,\"name\":\"blue turquoise\",\"year\":2005,\"color\":\"#53B0AE\",\"pantone_value\":\"15-5217\"}]}\n\n\nsrc\/test\/java\/users\/get\/user-get.feature:16\n"}],"line":11,"description":"","durationMillis":692.087,"failed":true,"error":"match failed: EQUALS\n  $ | not equal | actual has 1 more key(s) than expected - {\"support\":{\"url\":\"https:\\\/\\\/reqres.in\\\/#support-heading\",\"text\":\"To keep ReqRes free, contributions towards server costs are appreciated!\"}} (MAP:MAP)\n  {\"page\":1,\"per_page\":6,\"total\":12,\"total_pages\":2,\"data\":[{\"id\":1,\"name\":\"cerulean\",\"year\":2000,\"color\":\"#98B2D1\",\"pantone_value\":\"15-4020\"},{\"id\":2,\"name\":\"fuchsia rose\",\"year\":2001,\"color\":\"#C74375\",\"pantone_value\":\"17-2031\"},{\"id\":3,\"name\":\"true red\",\"year\":2002,\"color\":\"#BF1932\",\"pantone_value\":\"19-1664\"},{\"id\":4,\"name\":\"aqua sky\",\"year\":2003,\"color\":\"#7BC4C4\",\"pantone_value\":\"14-4811\"},{\"id\":5,\"name\":\"tigerlily\",\"year\":2004,\"color\":\"#E2583E\",\"pantone_value\":\"17-1456\"},{\"id\":6,\"name\":\"blue turquoise\",\"year\":2005,\"color\":\"#53B0AE\",\"pantone_value\":\"15-5217\"}],\"support\":{\"url\":\"https:\/\/reqres.in\/#support-heading\",\"text\":\"To keep ReqRes free, contributions towards server costs are appreciated!\"}}\n  {\"page\":1,\"per_page\":6,\"total\":12,\"total_pages\":2,\"data\":[{\"id\":1,\"name\":\"cerulean\",\"year\":2000,\"color\":\"#98B2D1\",\"pantone_value\":\"15-4020\"},{\"id\":2,\"name\":\"fuchsia rose\",\"year\":2001,\"color\":\"#C74375\",\"pantone_value\":\"17-2031\"},{\"id\":3,\"name\":\"true red\",\"year\":2002,\"color\":\"#BF1932\",\"pantone_value\":\"19-1664\"},{\"id\":4,\"name\":\"aqua sky\",\"year\":2003,\"color\":\"#7BC4C4\",\"pantone_value\":\"14-4811\"},{\"id\":5,\"name\":\"tigerlily\",\"year\":2004,\"color\":\"#E2583E\",\"pantone_value\":\"17-1456\"},{\"id\":6,\"name\":\"blue turquoise\",\"year\":2005,\"color\":\"#53B0AE\",\"pantone_value\":\"15-5217\"}]}\n\n\nsrc\/test\/java\/users\/get\/user-get.feature:16","executorName":"main","name":"get a list of user and validate a json area","startTime":1670339445773,"refId":"[2:11]","endTime":1670339446476,"exampleIndex":-1},{"sectionIndex":2,"stepResults":[{"result":{"nanos":587400,"millis":0.5874,"status":"passed"},"step":{"background":true,"line":4,"prefix":"*","index":0,"text":"url \"https:\/\/reqres.in\/\""}},{"result":{"nanos":206300,"millis":0.2063,"status":"passed"},"step":{"line":69,"prefix":"Given","index":0,"text":"path \"api\/users?page=1\""}},{"result":{"nanos":212401200,"millis":212.4012,"status":"passed"},"step":{"line":70,"prefix":"When","index":1,"text":"method get"},"stepLog":"10:10:46.484 request:\n1 > GET https:\/\/reqres.in\/api\/users%3Fpage=1\n1 > Host: reqres.in\n1 > Connection: Keep-Alive\n1 > User-Agent: Apache-HttpClient\/4.5.13 (Java\/16.0.2)\n1 > Accept-Encoding: gzip,deflate\n\n\n10:10:46.694 response time in milliseconds: 210\n1 < 200\n1 < Date: Tue, 06 Dec 2022 15:10:46 GMT\n1 < Content-Type: application\/json; charset=utf-8\n1 < Transfer-Encoding: chunked\n1 < Connection: keep-alive\n1 < X-Powered-By: Express\n1 < Access-Control-Allow-Origin: *\n1 < Etag: W\/\"2c1-N6Rqerxquq2kgQhL51EiSg4x0R8\"\n1 < Via: 1.1 vegur\n1 < Cache-Control: max-age=14400\n1 < CF-Cache-Status: HIT\n1 < Age: 953\n1 < Report-To: {\"endpoints\":[{\"url\":\"https:\\\/\\\/a.nel.cloudflare.com\\\/report\\\/v3?s=QDdb8XLgsDhjbYZKOItPJtJEcw%2BrjEKWFETfVD9SwBQvy%2Flryd3uDqqz%2F4Y%2BRE%2B75pTXjR%2Be1lRJkxo4bL7yV4y90LOaj0xpne%2FX%2BlMcz4CYIosRlfmiXJJD7w%3D%3D\"}],\"group\":\"cf-nel\",\"max_age\":604800}\n1 < NEL: {\"success_fraction\":0,\"report_to\":\"cf-nel\",\"max_age\":604800}\n1 < Vary: Accept-Encoding\n1 < Server: cloudflare\n1 < CF-RAY: 7755f346cdf1da93-MIA\n{\"page\":1,\"per_page\":6,\"total\":12,\"total_pages\":2,\"data\":[{\"id\":1,\"name\":\"cerulean\",\"year\":2000,\"color\":\"#98B2D1\",\"pantone_value\":\"15-4020\"},{\"id\":2,\"name\":\"fuchsia rose\",\"year\":2001,\"color\":\"#C74375\",\"pantone_value\":\"17-2031\"},{\"id\":3,\"name\":\"true red\",\"year\":2002,\"color\":\"#BF1932\",\"pantone_value\":\"19-1664\"},{\"id\":4,\"name\":\"aqua sky\",\"year\":2003,\"color\":\"#7BC4C4\",\"pantone_value\":\"14-4811\"},{\"id\":5,\"name\":\"tigerlily\",\"year\":2004,\"color\":\"#E2583E\",\"pantone_value\":\"17-1456\"},{\"id\":6,\"name\":\"blue turquoise\",\"year\":2005,\"color\":\"#53B0AE\",\"pantone_value\":\"15-5217\"}],\"support\":{\"url\":\"https:\/\/reqres.in\/#support-heading\",\"text\":\"To keep ReqRes free, contributions towards server costs are appreciated!\"}}\n\n"},{"result":{"nanos":7500,"millis":0.0075,"status":"passed"},"step":{"line":71,"prefix":"Then","index":2,"text":"status 200"}},{"result":{"nanos":781100,"millis":0.7811,"status":"passed"},"step":{"line":72,"prefix":"And","index":3,"text":"print response"},"stepLog":"10:10:46.696 [print] {\n  \"page\": 1,\n  \"per_page\": 6,\n  \"total\": 12,\n  \"total_pages\": 2,\n  \"data\": [\n    {\n      \"id\": 1,\n      \"name\": \"cerulean\",\n      \"year\": 2000,\n      \"color\": \"#98B2D1\",\n      \"pantone_value\": \"15-4020\"\n    },\n    {\n      \"id\": 2,\n      \"name\": \"fuchsia rose\",\n      \"year\": 2001,\n      \"color\": \"#C74375\",\n      \"pantone_value\": \"17-2031\"\n    },\n    {\n      \"id\": 3,\n      \"name\": \"true red\",\n      \"year\": 2002,\n      \"color\": \"#BF1932\",\n      \"pantone_value\": \"19-1664\"\n    },\n    {\n      \"id\": 4,\n      \"name\": \"aqua sky\",\n      \"year\": 2003,\n      \"color\": \"#7BC4C4\",\n      \"pantone_value\": \"14-4811\"\n    },\n    {\n      \"id\": 5,\n      \"name\": \"tigerlily\",\n      \"year\": 2004,\n      \"color\": \"#E2583E\",\n      \"pantone_value\": \"17-1456\"\n    },\n    {\n      \"id\": 6,\n      \"name\": \"blue turquoise\",\n      \"year\": 2005,\n      \"color\": \"#53B0AE\",\n      \"pantone_value\": \"15-5217\"\n    }\n  ],\n  \"support\": {\n    \"url\": \"https:\/\/reqres.in\/#support-heading\",\n    \"text\": \"To keep ReqRes free, contributions towards server costs are appreciated!\"\n  }\n}\n \n"},{"result":{"nanos":355600,"millis":0.3556,"status":"passed"},"step":{"line":73,"prefix":"And","index":4,"text":"match response contains deep {\"page\": 1}"}}],"executorName":"main","line":68,"name":"get a list of user and validate a json area","description":"","durationMillis":214.3391,"startTime":1670339446481,"failed":false,"refId":"[3:68]","endTime":1670339446696,"exampleIndex":-1}],"callDepth":0,"name":"get user on regres","description":"","resultDate":"2022-12-06 10:10:46 a. m.","durationMillis":906.4261,"passedCount":1}