{"failedCount":1,"prefixedPath":"src\/test\/java\/users\/get\/user-get.feature","packageQualifiedName":"src.test.java.users.get.user-get","loopIndex":-1,"relativePath":"src\/test\/java\/users\/get\/user-get.feature","scenarioResults":[{"sectionIndex":1,"stepResults":[{"result":{"nanos":49775000,"millis":49.775,"status":"passed"},"step":{"background":true,"line":4,"prefix":"*","index":0,"text":"url \"https:\/\/reqres.in\/\""}},{"result":{"nanos":523300,"millis":0.5233,"status":"passed"},"step":{"line":12,"prefix":"Given","index":0,"text":"path \"api\/users?page=1\""}},{"result":{"nanos":785955400,"millis":785.9554,"status":"passed"},"step":{"line":13,"prefix":"When","index":1,"text":"method get"},"stepLog":"09:57:05.918 request:\n1 > GET https:\/\/reqres.in\/api\/users%3Fpage=1\n1 > Host: reqres.in\n1 > Connection: Keep-Alive\n1 > User-Agent: Apache-HttpClient\/4.5.13 (Java\/16.0.2)\n1 > Accept-Encoding: gzip,deflate\n\n\n09:57:06.487 response time in milliseconds: 566\n1 < 200\n1 < Date: Tue, 06 Dec 2022 14:57:06 GMT\n1 < Content-Type: application\/json; charset=utf-8\n1 < Transfer-Encoding: chunked\n1 < Connection: keep-alive\n1 < X-Powered-By: Express\n1 < Access-Control-Allow-Origin: *\n1 < Etag: W\/\"2c1-N6Rqerxquq2kgQhL51EiSg4x0R8\"\n1 < Via: 1.1 vegur\n1 < Cache-Control: max-age=14400\n1 < CF-Cache-Status: MISS\n1 < Report-To: {\"endpoints\":[{\"url\":\"https:\\\/\\\/a.nel.cloudflare.com\\\/report\\\/v3?s=%2FPOx6CkxDrpWmWdplnMci5j%2B4XGVU2mdxku1R%2F888WnPH4gh%2BaJV32U4sDUEHCAHmJZQ7g7z83G5y4pZLdNFuJNImJVrddVXqyPge%2FMigVyz9j5ZxLODDYiT3Q%3D%3D\"}],\"group\":\"cf-nel\",\"max_age\":604800}\n1 < NEL: {\"success_fraction\":0,\"report_to\":\"cf-nel\",\"max_age\":604800}\n1 < Vary: Accept-Encoding\n1 < Server: cloudflare\n1 < CF-RAY: 7755df3eecd7b3e6-MIA\n{\"page\":1,\"per_page\":6,\"total\":12,\"total_pages\":2,\"data\":[{\"id\":1,\"name\":\"cerulean\",\"year\":2000,\"color\":\"#98B2D1\",\"pantone_value\":\"15-4020\"},{\"id\":2,\"name\":\"fuchsia rose\",\"year\":2001,\"color\":\"#C74375\",\"pantone_value\":\"17-2031\"},{\"id\":3,\"name\":\"true red\",\"year\":2002,\"color\":\"#BF1932\",\"pantone_value\":\"19-1664\"},{\"id\":4,\"name\":\"aqua sky\",\"year\":2003,\"color\":\"#7BC4C4\",\"pantone_value\":\"14-4811\"},{\"id\":5,\"name\":\"tigerlily\",\"year\":2004,\"color\":\"#E2583E\",\"pantone_value\":\"17-1456\"},{\"id\":6,\"name\":\"blue turquoise\",\"year\":2005,\"color\":\"#53B0AE\",\"pantone_value\":\"15-5217\"}],\"support\":{\"url\":\"https:\/\/reqres.in\/#support-heading\",\"text\":\"To keep ReqRes free, contributions towards server costs are appreciated!\"}}\n\n"},{"result":{"nanos":17100,"millis":0.0171,"status":"passed"},"step":{"line":14,"prefix":"Then","index":2,"text":"status 200"}},{"result":{"nanos":52170300,"millis":52.1703,"status":"passed"},"step":{"line":15,"prefix":"And","index":3,"text":"print response"},"stepLog":"09:57:06.557 [print] {\n  \"page\": 1,\n  \"per_page\": 6,\n  \"total\": 12,\n  \"total_pages\": 2,\n  \"data\": [\n    {\n      \"id\": 1,\n      \"name\": \"cerulean\",\n      \"year\": 2000,\n      \"color\": \"#98B2D1\",\n      \"pantone_value\": \"15-4020\"\n    },\n    {\n      \"id\": 2,\n      \"name\": \"fuchsia rose\",\n      \"year\": 2001,\n      \"color\": \"#C74375\",\n      \"pantone_value\": \"17-2031\"\n    },\n    {\n      \"id\": 3,\n      \"name\": \"true red\",\n      \"year\": 2002,\n      \"color\": \"#BF1932\",\n      \"pantone_value\": \"19-1664\"\n    },\n    {\n      \"id\": 4,\n      \"name\": \"aqua sky\",\n      \"year\": 2003,\n      \"color\": \"#7BC4C4\",\n      \"pantone_value\": \"14-4811\"\n    },\n    {\n      \"id\": 5,\n      \"name\": \"tigerlily\",\n      \"year\": 2004,\n      \"color\": \"#E2583E\",\n      \"pantone_value\": \"17-1456\"\n    },\n    {\n      \"id\": 6,\n      \"name\": \"blue turquoise\",\n      \"year\": 2005,\n      \"color\": \"#53B0AE\",\n      \"pantone_value\": \"15-5217\"\n    }\n  ],\n  \"support\": {\n    \"url\": \"https:\/\/reqres.in\/#support-heading\",\n    \"text\": \"To keep ReqRes free, contributions towards server costs are appreciated!\"\n  }\n}\n \n"},{"result":{"nanos":27855800,"errorMessage":"js failed:\n>>>>\n01: \"page\": 1,\n02:   \"per_page\": 6,\n03:   \"total\": 12,\n04:   \"total_pages\": 2,\n05:   \"data\": [\n06: {\n07:   \"id\": 1,\n08:   \"name\": \"cerulean\",\n09:   \"year\": 2000,\n10:   \"color\": \"#98B2D1\",\n11:   \"pantone_value\": \"15-4020\"\n12: },\n13: {\n14:   \"id\": 2,\n15:   \"name\": \"fuchsia rose\",\n16:   \"year\": 2001,\n17:   \"color\": \"#C74375\",\n18:   \"pantone_value\": \"17-2031\"\n19: },\n20: {\n21:   \"id\": 3,\n22:   \"name\": \"true red\",\n23:   \"year\": 2002,\n24:   \"color\": \"#BF1932\",\n25:   \"pantone_value\": \"19-1664\"\n26: },\n27: {\n28:   \"id\": 4,\n29:   \"name\": \"aqua sky\",\n30:   \"year\": 2003,\n31:   \"color\": \"#7BC4C4\",\n32:   \"pantone_value\": \"14-4811\"\n33: },\n34: {\n35:   \"id\": 5,\n36:   \"name\": \"tigerlily\",\n37:   \"year\": 2004,\n38:   \"color\": \"#E2583E\",\n39:   \"pantone_value\": \"17-1456\"\n40: },\n41: {\n42:   \"id\": 6,\n43:   \"name\": \"blue turquoise\",\n44:   \"year\": 2005,\n45:   \"color\": \"#53B0AE\",\n46:   \"pantone_value\": \"15-5217\"\n47: }\n48:   ]\n<<<<\norg.graalvm.polyglot.PolyglotException: SyntaxError: Unnamed:1:6 Expected ; but found :\r\n\"page\": 1,\r\n      ^\nUnnamed:2:12 Expected ; but found :\r\n  \"per_page\": 6,\r\n            ^\nUnnamed:3:9 Expected ; but found :\r\n  \"total\": 12,\r\n         ^\nUnnamed:4:15 Expected ; but found :\r\n  \"total_pages\": 2,\r\n               ^\nUnnamed:5:8 Expected ; but found :\r\n  \"data\": [\r\n        ^\nUnnamed:7:6 Expected ; but found :\r\n  \"id\": 1,\r\n      ^\nUnnamed:8:8 Expected ; but found :\r\n  \"name\": \"cerulean\",\r\n        ^\nUnnamed:9:8 Expected ; but found :\r\n  \"year\": 2000,\r\n        ^\nUnnamed:10:9 Expected ; but found :\r\n  \"color\": \"#98B2D1\",\r\n         ^\nUnnamed:11:17 Expected ; but found :\r\n  \"pantone_value\": \"15-4020\"\r\n                 ^\nUnnamed:12:0 Expected eof but found }\r\n},\r\n^\n\n- org.graalvm.polyglot.Context.eval(Context.java:425)\n- com.intuit.karate.graal.JsEngine.evalForValue(JsEngine.java:139)\n- com.intuit.karate.graal.JsEngine.eval(JsEngine.java:135)\n- com.intuit.karate.core.ScenarioEngine.evalJs(ScenarioEngine.java:1190)\n- com.intuit.karate.core.ScenarioEngine.evalKarateExpression(ScenarioEngine.java:2143)\n- com.intuit.karate.core.ScenarioEngine.match(ScenarioEngine.java:1741)\n- com.intuit.karate.core.ScenarioEngine.matchResult(ScenarioEngine.java:174)\n\nsrc\/test\/java\/users\/get\/user-get.feature:16","millis":27.8558,"status":"failed"},"step":{"endLine":66,"line":16,"prefix":"And","docString":"\"page\": 1,\n  \"per_page\": 6,\n  \"total\": 12,\n  \"total_pages\": 2,\n  \"data\": [\n{\n  \"id\": 1,\n  \"name\": \"cerulean\",\n  \"year\": 2000,\n  \"color\": \"#98B2D1\",\n  \"pantone_value\": \"15-4020\"\n},\n{\n  \"id\": 2,\n  \"name\": \"fuchsia rose\",\n  \"year\": 2001,\n  \"color\": \"#C74375\",\n  \"pantone_value\": \"17-2031\"\n},\n{\n  \"id\": 3,\n  \"name\": \"true red\",\n  \"year\": 2002,\n  \"color\": \"#BF1932\",\n  \"pantone_value\": \"19-1664\"\n},\n{\n  \"id\": 4,\n  \"name\": \"aqua sky\",\n  \"year\": 2003,\n  \"color\": \"#7BC4C4\",\n  \"pantone_value\": \"14-4811\"\n},\n{\n  \"id\": 5,\n  \"name\": \"tigerlily\",\n  \"year\": 2004,\n  \"color\": \"#E2583E\",\n  \"pantone_value\": \"17-1456\"\n},\n{\n  \"id\": 6,\n  \"name\": \"blue turquoise\",\n  \"year\": 2005,\n  \"color\": \"#53B0AE\",\n  \"pantone_value\": \"15-5217\"\n}\n  ]","index":4,"text":"match response =="},"stepLog":"09:57:06.586 src\/test\/java\/users\/get\/user-get.feature:16\nAnd match response ==\n\"\"\"\n\"page\": 1,\n  \"per_page\": 6,\n  \"total\": 12,\n  \"total_pages\": 2,\n  \"data\": [\n{\n  \"id\": 1,\n  \"name\": \"cerulean\",\n  \"year\": 2000,\n  \"color\": \"#98B2D1\",\n  \"pantone_value\": \"15-4020\"\n},\n{\n  \"id\": 2,\n  \"name\": \"fuchsia rose\",\n  \"year\": 2001,\n  \"color\": \"#C74375\",\n  \"pantone_value\": \"17-2031\"\n},\n{\n  \"id\": 3,\n  \"name\": \"true red\",\n  \"year\": 2002,\n  \"color\": \"#BF1932\",\n  \"pantone_value\": \"19-1664\"\n},\n{\n  \"id\": 4,\n  \"name\": \"aqua sky\",\n  \"year\": 2003,\n  \"color\": \"#7BC4C4\",\n  \"pantone_value\": \"14-4811\"\n},\n{\n  \"id\": 5,\n  \"name\": \"tigerlily\",\n  \"year\": 2004,\n  \"color\": \"#E2583E\",\n  \"pantone_value\": \"17-1456\"\n},\n{\n  \"id\": 6,\n  \"name\": \"blue turquoise\",\n  \"year\": 2005,\n  \"color\": \"#53B0AE\",\n  \"pantone_value\": \"15-5217\"\n}\n  ]\n\"\"\"\njs failed:\n>>>>\n01: \"page\": 1,\n02:   \"per_page\": 6,\n03:   \"total\": 12,\n04:   \"total_pages\": 2,\n05:   \"data\": [\n06: {\n07:   \"id\": 1,\n08:   \"name\": \"cerulean\",\n09:   \"year\": 2000,\n10:   \"color\": \"#98B2D1\",\n11:   \"pantone_value\": \"15-4020\"\n12: },\n13: {\n14:   \"id\": 2,\n15:   \"name\": \"fuchsia rose\",\n16:   \"year\": 2001,\n17:   \"color\": \"#C74375\",\n18:   \"pantone_value\": \"17-2031\"\n19: },\n20: {\n21:   \"id\": 3,\n22:   \"name\": \"true red\",\n23:   \"year\": 2002,\n24:   \"color\": \"#BF1932\",\n25:   \"pantone_value\": \"19-1664\"\n26: },\n27: {\n28:   \"id\": 4,\n29:   \"name\": \"aqua sky\",\n30:   \"year\": 2003,\n31:   \"color\": \"#7BC4C4\",\n32:   \"pantone_value\": \"14-4811\"\n33: },\n34: {\n35:   \"id\": 5,\n36:   \"name\": \"tigerlily\",\n37:   \"year\": 2004,\n38:   \"color\": \"#E2583E\",\n39:   \"pantone_value\": \"17-1456\"\n40: },\n41: {\n42:   \"id\": 6,\n43:   \"name\": \"blue turquoise\",\n44:   \"year\": 2005,\n45:   \"color\": \"#53B0AE\",\n46:   \"pantone_value\": \"15-5217\"\n47: }\n48:   ]\n<<<<\norg.graalvm.polyglot.PolyglotException: SyntaxError: Unnamed:1:6 Expected ; but found :\r\n\"page\": 1,\r\n      ^\nUnnamed:2:12 Expected ; but found :\r\n  \"per_page\": 6,\r\n            ^\nUnnamed:3:9 Expected ; but found :\r\n  \"total\": 12,\r\n         ^\nUnnamed:4:15 Expected ; but found :\r\n  \"total_pages\": 2,\r\n               ^\nUnnamed:5:8 Expected ; but found :\r\n  \"data\": [\r\n        ^\nUnnamed:7:6 Expected ; but found :\r\n  \"id\": 1,\r\n      ^\nUnnamed:8:8 Expected ; but found :\r\n  \"name\": \"cerulean\",\r\n        ^\nUnnamed:9:8 Expected ; but found :\r\n  \"year\": 2000,\r\n        ^\nUnnamed:10:9 Expected ; but found :\r\n  \"color\": \"#98B2D1\",\r\n         ^\nUnnamed:11:17 Expected ; but found :\r\n  \"pantone_value\": \"15-4020\"\r\n                 ^\nUnnamed:12:0 Expected eof but found }\r\n},\r\n^\n\n- org.graalvm.polyglot.Context.eval(Context.java:425)\n- com.intuit.karate.graal.JsEngine.evalForValue(JsEngine.java:139)\n- com.intuit.karate.graal.JsEngine.eval(JsEngine.java:135)\n- com.intuit.karate.core.ScenarioEngine.evalJs(ScenarioEngine.java:1190)\n- com.intuit.karate.core.ScenarioEngine.evalKarateExpression(ScenarioEngine.java:2143)\n- com.intuit.karate.core.ScenarioEngine.match(ScenarioEngine.java:1741)\n- com.intuit.karate.core.ScenarioEngine.matchResult(ScenarioEngine.java:174)\n\nsrc\/test\/java\/users\/get\/user-get.feature:16\n"}],"line":11,"description":"","durationMillis":916.2969,"failed":true,"error":"js failed:\n>>>>\n01: \"page\": 1,\n02:   \"per_page\": 6,\n03:   \"total\": 12,\n04:   \"total_pages\": 2,\n05:   \"data\": [\n06: {\n07:   \"id\": 1,\n08:   \"name\": \"cerulean\",\n09:   \"year\": 2000,\n10:   \"color\": \"#98B2D1\",\n11:   \"pantone_value\": \"15-4020\"\n12: },\n13: {\n14:   \"id\": 2,\n15:   \"name\": \"fuchsia rose\",\n16:   \"year\": 2001,\n17:   \"color\": \"#C74375\",\n18:   \"pantone_value\": \"17-2031\"\n19: },\n20: {\n21:   \"id\": 3,\n22:   \"name\": \"true red\",\n23:   \"year\": 2002,\n24:   \"color\": \"#BF1932\",\n25:   \"pantone_value\": \"19-1664\"\n26: },\n27: {\n28:   \"id\": 4,\n29:   \"name\": \"aqua sky\",\n30:   \"year\": 2003,\n31:   \"color\": \"#7BC4C4\",\n32:   \"pantone_value\": \"14-4811\"\n33: },\n34: {\n35:   \"id\": 5,\n36:   \"name\": \"tigerlily\",\n37:   \"year\": 2004,\n38:   \"color\": \"#E2583E\",\n39:   \"pantone_value\": \"17-1456\"\n40: },\n41: {\n42:   \"id\": 6,\n43:   \"name\": \"blue turquoise\",\n44:   \"year\": 2005,\n45:   \"color\": \"#53B0AE\",\n46:   \"pantone_value\": \"15-5217\"\n47: }\n48:   ]\n<<<<\norg.graalvm.polyglot.PolyglotException: SyntaxError: Unnamed:1:6 Expected ; but found :\r\n\"page\": 1,\r\n      ^\nUnnamed:2:12 Expected ; but found :\r\n  \"per_page\": 6,\r\n            ^\nUnnamed:3:9 Expected ; but found :\r\n  \"total\": 12,\r\n         ^\nUnnamed:4:15 Expected ; but found :\r\n  \"total_pages\": 2,\r\n               ^\nUnnamed:5:8 Expected ; but found :\r\n  \"data\": [\r\n        ^\nUnnamed:7:6 Expected ; but found :\r\n  \"id\": 1,\r\n      ^\nUnnamed:8:8 Expected ; but found :\r\n  \"name\": \"cerulean\",\r\n        ^\nUnnamed:9:8 Expected ; but found :\r\n  \"year\": 2000,\r\n        ^\nUnnamed:10:9 Expected ; but found :\r\n  \"color\": \"#98B2D1\",\r\n         ^\nUnnamed:11:17 Expected ; but found :\r\n  \"pantone_value\": \"15-4020\"\r\n                 ^\nUnnamed:12:0 Expected eof but found }\r\n},\r\n^\n\n- org.graalvm.polyglot.Context.eval(Context.java:425)\n- com.intuit.karate.graal.JsEngine.evalForValue(JsEngine.java:139)\n- com.intuit.karate.graal.JsEngine.eval(JsEngine.java:135)\n- com.intuit.karate.core.ScenarioEngine.evalJs(ScenarioEngine.java:1190)\n- com.intuit.karate.core.ScenarioEngine.evalKarateExpression(ScenarioEngine.java:2143)\n- com.intuit.karate.core.ScenarioEngine.match(ScenarioEngine.java:1741)\n- com.intuit.karate.core.ScenarioEngine.matchResult(ScenarioEngine.java:174)\n\nsrc\/test\/java\/users\/get\/user-get.feature:16","executorName":"main","name":"get a list of user","startTime":1670338625659,"refId":"[2:11]","endTime":1670338626586,"exampleIndex":-1}],"callDepth":0,"name":"get user on regres","description":"","resultDate":"2022-12-06 09:57:06 a. m.","durationMillis":916.2969,"passedCount":0}